Introduction to openalexR: a webinar
…
Requesting url: https://api.openalex.org/works?filter=authorships.institutions.lineage%3Ai107672454%2Cpublication_year%3A%3E2000%2Cpublication_year%3A%3C2024%2Ctype%3Adataset&select=id%2Copen_access%2Cpublication_year

Getting 21 pages of results with a total of 4122 records...

w_dartmouth

# A tibble: 4,123 × 6
   id    is_oa_anywhere oa_status oa_url any_repository_has_f…¹ publication_year
   <chr> <lgl>          <chr>     <chr>  <lgl>                             <int>
 1 http… FALSE          closed    <NA>   FALSE                              2006
 2 http… TRUE           hybrid    https… TRUE                               2014
 3 http… TRUE           gold      https… TRUE                               2015
 4 http… TRUE           hybrid    https… TRUE                               2021
 5 http… TRUE           gold      https… TRUE                               2023
 6 http… TRUE           gold      https… TRUE                               2023
 7 http… TRUE           gold      https… TRUE                               2014
 8 http… TRUE           gold      https… TRUE                               2022
 9 http… TRUE           gold      https… TRUE                               2020
10 http… FALSE          closed    <NA>   FALSE                              2023
# ℹ 4,113 more rows
# ℹ abbreviated name: ¹​any_repository_has_fulltext
…
